module github.com/voidint/g

go 1.18

require (
	github.com/Masterminds/semver v1.5.0
	github.com/PuerkitoBio/goquery v1.8.0
	github.com/daviddengcn/go-colortext v1.0.0
	github.com/dixonwille/wlog/v3 v3.0.1
	github.com/dixonwille/wmenu/v5 v5.1.0
	github.com/fatih/color v1.13.0
	github.com/k0kubun/go-ansi v0.0.0-20180517002512-3bf9e2903213
	github.com/mholt/archiver/v3 v3.5.1
	github.com/schollz/progressbar/v3 v3.12.1
	github.com/stretchr/testify v1.8.0
	github.com/urfave/cli/v2 v2.23.5
	github.com/voidint/go-update v1.0.0
)

require (
	github.com/andybalholm/brotli v1.0.4 // indirect
	github.com/andybalholm/cascadia v1.3.1 // indirect
	github.com/cpuguy83/go-md2man/v2 v2.0.2 // indirect
	github.com/davecgh/go-spew v1.1.1 // indirect
	github.com/dsnet/compress v0.0.2-0.20210315054119-f66993602bf5 // indirect
	github.com/golang/snappy v0.0.4 // indirect
	github.com/klauspost/compress v1.15.12 // indirect
	github.com/klauspost/pgzip v1.2.5 // indirect
	github.com/mattn/go-colorable v0.1.13 // indirect
	github.com/mattn/go-isatty v0.0.16 // indirect
	github.com/mattn/go-runewidth v0.0.14 // indirect
	github.com/mitchellh/colorstring v0.0.0-20190213212951-d06e56a500db // indirect
	github.com/nwaples/rardecode v1.1.3 // indirect
	github.com/pierrec/lz4/v4 v4.1.17 // indirect
	github.com/pmezard/go-difflib v1.0.0 // indirect
	github.com/rivo/uniseg v0.4.3 // indirect
	github.com/russross/blackfriday/v2 v2.1.0 // indirect
	github.com/ulikunitz/xz v0.5.10 // indirect
	github.com/xi2/xz v0.0.0-20171230120015-48954b6210f8 // indirect
	github.com/xrash/smetrics v0.0.0-20201216005158-039620a65673 // indirect
	golang.org/x/net v0.2.0 // indirect
	golang.org/x/sys v0.2.0 // indirect
	golang.org/x/term v0.2.0 // indirect
	gopkg.in/yaml.v3 v3.0.1 // indirect
)
